solid icosahedron_2_1_step_49
	facet normal -0.0049754220459171461 -0.0011745378198336387 0.0036148557124067579 
		outer loop
			vertex 0. 0.18163563199999999 0.24999999995 
			vertex 0.0099508440944628615 0.11035655201526867 0.24053618483712463 
			vertex 0.062054140199945811 0.10040570792364026 0.3090169943293703 
		endloop
	endfacet
	facet normal -0.01060011262157955 -0.01715134250788368 -0.052786404484488958 
		outer loop
			vertex 0.58778525229999978 -1.3877787807814457e-17 5.5511151231257827e-17 
			vertex 0.26286555607794143 -0.1624598480728327 0.11803398871067203 
			vertex 0.20736264579609839 -0.02775145513321986 0.085410196599827515 
		endloop
	endfacet
	facet normal -0.042878356271843242 0.18163563197269669 0.13196601123707016 
		outer loop
			vertex 0.26286555610000001 0.062054140168633205 0.19098300557238407 
			vertex -0.1624598481 0.21266270205000001 -0.15450849715000001 
			vertex -0.26286555607339551 -0.062054140162352799 0.19098300557238415 
		endloop
	endfacet
	facet normal -0.031027070072232835 0.13143277799881234 0.095491502795651065 
		outer loop
			vertex -0.26286555607339551 -0.062054140162352799 0.19098300557238415 
			vertex -0.1624598481 0.21266270205000001 -0.15450849715000001 
			vertex -0.58778525230000001 0. 0. 
		endloop
	endfacet
	facet normal 0.014648995365981672 0.076703135550452148 2.3610302838845755e-17 
		outer loop
			vertex -0.26286555610000001 0.16245984809999997 -0.11803398873220591 
			vertex -0.26286555609999995 0.16245984809999989 0.11803398875523165 
			vertex 0.062054140196097285 0.10040570792437524 -0.072949016857999122 
		endloop
	endfacet
	facet normal 0.023702572397901647 0.12410828033658974 0. 
		outer loop
			vertex -0.26286555609999995 0.16245984809999989 0.11803398875523165 
			vertex 0.1624598481 0.081229924049999999 0.24999999995 
			vertex 0.062054140196097285 0.10040570792437524 -0.072949016857999122 
		endloop
	endfacet
	facet normal 0.031027070074970964 0.16245984808081024 -1.0408340855860843e-17 
		outer loop
			vertex 0.062054140196097285 0.10040570792437524 -0.072949016857999122 
			vertex 0.1624598481 0.081229924049999999 0.24999999995 
			vertex 0.58778525230000001 0. 0. 
		endloop
	endfacet
	facet normal -0.062054140148210993 0.26286555601349021 -0.1909830056028291 
		outer loop
			vertex 0.26286555610000001 0.42532540410000003 0.30901699430000001 
			vertex 0.26286555609999995 0.062054140157271821 -0.19098300558802156 
			vertex -0.26286555604472145 0.16245984808944261 0.11803398872273976 
		endloop
	endfacet
	facet normal -0.031027070074970964 0.13143277801041131 -0.095491502804078199 
		outer loop
			vertex 0.26286555609999995 0.062054140157271821 -0.19098300558802156 
			vertex 0.26286555610000001 -0.1624598481 -0.49999999989999999 
			vertex -0.1624598481 -0.081229924049999999 -0.24999999995 
		endloop
	endfacet
	facet normal -0.038351567755017905 0.16245984809125535 -0.11803398873854237 
		outer loop
			vertex 0.26286555609999995 0.062054140157271821 -0.19098300558802156 
			vertex -0.1624598481 -0.081229924049999999 -0.24999999995 
			vertex -0.26286555604472145 0.16245984808944261 0.11803398872273976 
		endloop
	endfacet
	facet normal -0.031027070074970946 0.13143277801041117 -0.095491502804078116 
		outer loop
			vertex -0.26286555604472145 0.16245984808944261 0.11803398872273976 
			vertex -0.1624598481 -0.081229924049999999 -0.24999999995 
			vertex -0.58778525230000001 0. 0. 
		endloop
	endfacet
	facet normal 0.023702572393577419 0.12410828031394759 -4.8572257327350599e-17 
		outer loop
			vertex 0.58778525230000001 0. 0. 
			vertex 0.26286555605918144 0.062054140165067391 -0.19098300558073894 
			vertex -0.26286555603825051 0.1624598480882069 -0.11803398872363777 
		endloop
	endfacet
	facet normal -0.042878356276877042 -0.069378637844151048 -0.21352549155501177 
		outer loop
			vertex 0.26286555609999995 0.062054140157271745 -0.1909830055864028 
			vertex -0.1624598481 -0.26286555605 0. 
			vertex -0.26286555604472145 0.16245984808944272 -0.11803398872273987 
		endloop
	endfacet
	facet normal -0.011851286201183173 -0.019175783885696032 0.059016994385846192 
		outer loop
			vertex 0.062054140195307167 0.32491969619383715 -7.4220304638534265e-18 
			vertex -0.26286555610000001 0.52573111210000001 0. 
			vertex -0.26286555610000006 0.34409548010000002 -0.059016994366102971 
		endloop
	endfacet
	facet normal -0.013250140782676726 -0.021439178144081097 0.065983005634007441 
		outer loop
			vertex 0.062054140195307167 0.32491969619383715 -7.4220304638534265e-18 
			vertex -0.26286555610000006 0.34409548010000002 -0.059016994366102971 
			vertex -0.10040570795635795 0.13143277801302919 -0.095491502795713959 
		endloop
	endfacet
	facet normal -0.0059256431004452714 -0.0095878919426112749 0.029508497192194488 
		outer loop
			vertex -0.10040570795635795 0.13143277801302919 -0.095491502795713959 
			vertex -0.26286555610000006 0.34409548010000002 -0.059016994366102971 
			vertex -0.26286555610000018 0.1624598481 -0.11803398873220594 
		endloop
	endfacet
	facet normal 0.031027070073072288 -0.019175783882860276 -0.013932022499558655 
		outer loop
			vertex -0.062054140177699085 0.26286555602295381 -0.19098300558389703 
			vertex 0.062054140183748357 0.32491969618007083 -6.7940930659204923e-12 
			vertex -0.10040570795403882 0.13143277801579126 -0.095491502794350799 
		endloop
	endfacet
	facet normal 0.13143277797730457 -0.081229924052805949 -0.059016994374486542 
		outer loop
			vertex 0.062054140183748357 0.32491969618007083 -6.7940930659204923e-12 
			vertex 0.26286555610000001 0.42532540410000003 0.30901699430000001 
			vertex 2.7755575615628914e-17 8.3266726846886741e-17 0.30901699429999996 
		endloop
	endfacet
	facet normal -0.038351567757521146 -0.062054140159270868 0.19098300560896575 
		outer loop
			vertex -0.26286555610000018 0.1624598481 -0.11803398873220594 
			vertex -0.26286555610000006 -0.062054140158223303 -0.19098300558671205 
			vertex 0.58778525229999989 -4.8572257327350599e-17 -2.7755575615628914e-17 
		endloop
	endfacet
	facet normal -0.033468569299787435 0.1417751346961221 0.10300566477649045 
		outer loop
			vertex 0.062054140165895499 -0.26286555600524891 0.19098300557340336 
			vertex 0.58778525230000001 -3.6055191715460195e-17 4.3681350730262474e-18 
			vertex 0.12899127878740602 -0.033468569305951081 -0.10300566477014772 
		endloop
	endfacet
	facet normal 0.031027070078604502 0.0073244976827351385 -0.022542485939444305 
		outer loop
			vertex 0.062054140187009971 -0.26286555601829836 0.1909830055982249 
			vertex -0.062054140188163534 -0.32491969618227828 5.5511151231257784e-17 
			vertex -0.10040570796139181 -0.16245984808523439 -8.3266726846886839e-17 
		endloop
	endfacet
	facet normal 0.040614962015058598 0.0095878919411346592 -0.029508497187650043 
		outer loop
			vertex -0.062054140188163534 -0.32491969618227828 5.5511151231257784e-17 
			vertex -0.26286555609999995 -0.24368977212911169 -0.24999999994335603 
			vertex -0.10040570796139181 -0.16245984808523439 -8.3266726846886839e-17 
		endloop
	endfacet
	facet normal 0.040614962013545371 0.0095878919407774814 -0.029508497186550631 
		outer loop
			vertex -0.10040570796139181 -0.16245984808523439 -8.3266726846886839e-17 
			vertex -0.26286555609999995 -0.24368977212911169 -0.24999999994335603 
			vertex -0.26286555609999995 -0.062054140158223386 -0.19098300558671202 
		endloop
	endfacet
	facet normal 0.10040570790373976 0.023702572399237121 0.072949016872230696 
		outer loop
			vertex -0.26286555610000001 -0.42532540409999997 0.30901699429999996 
			vertex -0.062054140188163513 -0.32491969618227834 5.5511151231257852e-17 
			vertex -0.13875727573230817 2.0160262348412061e-12 -2.2204460491666559e-16 
		endloop
	endfacet
	facet normal 0.13143277798854641 0.031027070083436373 0.095491502816181101 
		outer loop
			vertex -0.062054140188163513 -0.32491969618227834 5.5511151231257852e-17 
			vertex 0.26286555610000001 -0.1624598481 -0.49999999989999999 
			vertex 0.10040570796371426 0.050202853970263153 -0.34549150274833207 
		endloop
	endfacet
	facet normal 0.11225699410724327 0.02650028156465559 0.081559480313670316 
		outer loop
			vertex -0.062054140188163513 -0.32491969618227834 5.5511151231257852e-17 
			vertex 0.10040570796371426 0.050202853970263153 -0.34549150274833207 
			vertex -0.13875727573230817 2.0160262348412061e-12 -2.2204460491666559e-16 
		endloop
	endfacet
	facet normal 0.081229924036134507 0.019175783883689877 0.059016994379671971 
		outer loop
			vertex -0.13875727573230817 2.0160262348412061e-12 -2.2204460491666559e-16 
			vertex 0.10040570796371426 0.050202853970263153 -0.34549150274833207 
			vertex -0.062054140172571493 0.2628655560405263 -0.1909830055966642 
		endloop
	endfacet
	facet normal 0.022451398817628837 0.0053000563120293737 -0.016311896059958784 
		outer loop
			vertex 0. 0.18163563199999999 0.24999999995 
			vertex -0.11755705046683279 0.072654252815588571 0.052786404505895723 
			vertex -0.062054140172571541 0.2628655560405263 0.19098300559666415 
		endloop
	endfacet
	facet normal 0.058778525218113609 0.013875727571567971 -0.042705098319428314 
		outer loop
			vertex -0.11755705046683279 0.072654252815588571 0.052786404505895723 
			vertex -0.26286555609999995 -0.062054140158223386 -0.19098300558671202 
			vertex -0.26286555609999995 0.2318384859708883 -0.095491502793356012 
		endloop
	endfacet
	facet normal 0.050202853956160004 0.011851286200631325 -0.036474508439232299 
		outer loop
			vertex -0.11755705046683279 0.072654252815588571 0.052786404505895723 
			vertex -0.26286555609999995 0.2318384859708883 -0.095491502793356012 
			vertex -0.062054140172571541 0.2628655560405263 0.19098300559666415 
		endloop
	endfacet
	facet normal 0.081229924041564774 0.01917578388497182 -0.059016994383617266 
		outer loop
			vertex -0.062054140172571541 0.2628655560405263 0.19098300559666415 
			vertex -0.26286555609999995 0.2318384859708883 -0.095491502793356012 
			vertex -0.26286555610000001 0.52573111210000001 0. 
		endloop
	endfacet
	facet normal -0.010342356690035292 0.0063919279603423113 -0.0046440074994088905 
		outer loop
			vertex 0. 0.2938926261 0.095491502799999989 
			vertex -0.087621852027394004 0.17524370402228523 0.12732200372718303 
			vertex -0.062054140177699113 0.26286555602295386 0.19098300558389703 
		endloop
	endfacet
	facet normal -0.043810925994654679 0.027076641352307234 -0.019672331459158934 
		outer loop
			vertex -0.087621852027394004 0.17524370402228523 0.12732200372718303 
			vertex -0.26286555610000001 -0.062054140157271787 0.19098300558802178 
			vertex -0.26286555610000001 0.050202853971364106 0.34549150274401086 
		endloop
	endfacet
	facet normal -0.027076641341169293 0.016734284655598158 -0.012158169478755997 
		outer loop
			vertex -0.087621852027394004 0.17524370402228523 0.12732200372718303 
			vertex -0.26286555610000001 0.050202853971364106 0.34549150274401086 
			vertex -0.062054140177699113 0.26286555602295386 0.19098300558389703 
		endloop
	endfacet
	facet normal -0.050202853953650275 0.031027070085920982 -0.022542485938152796 
		outer loop
			vertex -0.062054140177699113 0.26286555602295386 0.19098300558389703 
			vertex -0.26286555610000001 0.050202853971364106 0.34549150274401086 
			vertex -0.26286555610000001 0.1624598481 0.49999999989999999 
		endloop
	endfacet
	facet normal 0.060545210650990479 0.014292785428672947 -0.043988670420472747 
		outer loop
			vertex 0.062054140187009971 -0.26286555601829836 0.1909830055982249 
			vertex -0.10040570796139157 -0.16245984808523456 1.1102230246251565e-16 
			vertex 0.020684713396217608 0.033468569323311381 0.23032766849888753 
		endloop
	endfacet
	facet normal 0.045408907986106618 0.010719589071000424 -0.032991502813802503 
		outer loop
			vertex -0.10040570796139157 -0.16245984808523456 1.1102230246251565e-16 
			vertex -0.26286555609999995 -0.062054140158223386 -0.19098300558671202 
			vertex -0.13143277804999998 0.059790745920888302 0.029508497181643986 
		endloop
	endfacet
	facet normal 0.045408907987019055 0.010719589071215821 -0.032991502814465425 
		outer loop
			vertex -0.10040570796139157 -0.16245984808523456 1.1102230246251565e-16 
			vertex -0.13143277804999998 0.059790745920888302 0.029508497181643986 
			vertex 0.020684713396217608 0.033468569323311381 0.23032766849888753 
		endloop
	endfacet
	facet normal 0.030272605325784938 0.0071463927144048648 -0.021994335210446862 
		outer loop
			vertex 0.020684713396217608 0.033468569323311381 0.23032766849888753 
			vertex -0.13143277804999998 0.059790745920888302 0.029508497181643986 
			vertex 0. 0.18163563199999999 0.24999999995 
		endloop
	endfacet
	facet normal 0.0073244976805447023 -0.031027070082952517 0.022542485935996087 
		outer loop
			vertex 0.26286555607339568 0.062054140162352764 0.19098300557238407 
			vertex 0.062054140176359754 0.10040570792814481 0.30901699429837048 
			vertex -7.9230649818740062e-12 -1.8704274240555208e-12 0.1909830055723841 
		endloop
	endfacet
	facet normal 0.011851286197392051 -0.050202853964487239 0.036474508434591685 
		outer loop
			vertex 0.062054140176359754 0.10040570792814481 0.30901699429837048 
			vertex -0.26286555610000001 0.1624598481 0.49999999989999999 
			vertex -0.26286555606809126 0.050202853973216 0.34549150273619206 
		endloop
	endfacet
	facet normal 0.0095878919388271977 -0.040614962023121835 0.029508497184859386 
		outer loop
			vertex 0.062054140176359754 0.10040570792814481 0.30901699429837048 
			vertex -0.26286555606809126 0.050202853973216 0.34549150273619206 
			vertex -7.9230649818740062e-12 -1.8704274240555208e-12 0.1909830055723841 
		endloop
	endfacet
	facet normal 0.0095878919376311093 -0.040614962018055117 0.029508497181178203 
		outer loop
			vertex -7.9230649818740062e-12 -1.8704274240555208e-12 0.1909830055723841 
			vertex -0.26286555606809126 0.050202853973216 0.34549150273619206 
			vertex -0.2628655560361825 -0.062054140153567999 0.19098300557238415 
		endloop
	endfacet
	facet normal -0.055178275995210607 -0.013025824018843984 0.040089364146650222 
		outer loop
			vertex 0.0099508440944628615 0.11035655201526867 0.24053618483712463 
			vertex 0.062054140187009971 -0.26286555601829836 0.1909830055982249 
			vertex 0.162459848143505 -0.21266270205914917 0.34549150274911244 
		endloop
	endfacet
	facet normal -0.021076225995468024 -0.0049754220451211769 0.015312774520950076 
		outer loop
			vertex 0.0099508440944628615 0.11035655201526867 0.24053618483712463 
			vertex 0.162459848143505 -0.21266270205914917 0.34549150274911244 
			vertex 0.062054140199945811 0.10040570792364026 0.3090169943293703 
		endloop
	endfacet
	facet normal -0.050202853951286777 -0.011851286199480913 0.036474508435691687 
		outer loop
			vertex 0.062054140199945811 0.10040570792364026 0.3090169943293703 
			vertex 0.162459848143505 -0.21266270205914917 0.34549150274911244 
			vertex 0.26286555610000001 -0.1624598481 0.49999999989999999 
		endloop
	endfacet
	facet normal 0.0032756149411937575 0.017151342502908503 -1.3010426069826053e-18 
		outer loop
			vertex 0.1624598481 0.081229924049999999 0.24999999995 
			vertex -0.027751455120779457 0.11755705043723551 0.19098300561499565 
			vertex 0.062054140176359761 0.10040570792814479 0.30901699429837048 
		endloop
	endfacet
	facet normal 0.008575671256243372 0.044902797657460566 -1.214306433183765e-17 
		outer loop
			vertex -0.027751455120779457 0.11755705043723551 0.19098300561499565 
			vertex -0.26286555609999995 0.16245984809999989 0.11803398875523165 
			vertex -0.26286555609999995 0.16245984809999994 0.30901699432761581 
		endloop
	endfacet
	facet normal 0.0073244976793029031 0.038351567755915826 0. 
		outer loop
			vertex -0.027751455120779457 0.11755705043723551 0.19098300561499565 
			vertex -0.26286555609999995 0.16245984809999994 0.30901699432761581 
			vertex 0.062054140176359761 0.10040570792814479 0.30901699429837048 
		endloop
	endfacet
	facet normal 0.011851286198230922 0.062054140164525373 -1.3877787807814457e-17 
		outer loop
			vertex 0.062054140176359761 0.10040570792814479 0.30901699429837048 
			vertex -0.26286555609999995 0.16245984809999994 0.30901699432761581 
			vertex -0.26286555610000001 0.1624598481 0.49999999989999999 
		endloop
	endfacet
	facet normal -0.0040488827379518422 0.017151342514828433 0.012461179750143513 
		outer loop
			vertex -0.26286555610000001 -0.062054140158223359 -0.19098300558671205 
			vertex -0.26286555610000001 -0.20081141585143095 0. 
			vertex -0.17305996076894734 -0.11755705043626247 -0.085410196604426336 
		endloop
	endfacet
	facet normal -0.011851286197389864 0.050202853964477982 0.036474508434584947 
		outer loop
			vertex -0.26286555610000001 -0.20081141585143095 0. 
			vertex -0.26286555610000001 -0.42532540410000003 0.30901699430000001 
			vertex -0.10040570796705225 -0.34409548005262447 0.24999999993670169 
		endloop
	endfacet
	facet normal -0.0085756712548170754 0.036327126396438938 0.026393202248794163 
		outer loop
			vertex -0.26286555610000001 -0.20081141585143095 0. 
			vertex -0.10040570796705225 -0.34409548005262447 0.24999999993670169 
			vertex -0.17305996076894734 -0.11755705043626247 -0.085410196604426336 
		endloop
	endfacet
	facet normal -0.013875727566011846 0.05877852522039291 0.042705098308567405 
		outer loop
			vertex -0.17305996076894734 -0.11755705043626247 -0.085410196604426336 
			vertex -0.10040570796705225 -0.34409548005262447 0.24999999993670169 
			vertex 0.062054140165895499 -0.26286555600524891 0.19098300557340336 
		endloop
	endfacet
	facet normal 0.0383515677555991 -0.023702572402687062 0.017220926874693052 
		outer loop
			vertex -0.26286555610000001 -0.062054140157271787 0.19098300558802178 
			vertex -0.26286555610000001 -0.20081141585143097 1.3877787807814457e-17 
			vertex -0.13875727573385596 -0.085756712560817822 -0.11803398872012552 
		endloop
	endfacet
	facet normal 0.050202853950168741 -0.031027070083769263 0.022542485936589477 
		outer loop
			vertex -0.26286555610000001 -0.20081141585143097 1.3877787807814457e-17 
			vertex -0.26286555610000001 -0.42532540410000003 -0.30901699430000001 
			vertex -0.16245984814192069 -0.26286555601335798 -0.30901699430000001 
		endloop
	endfacet
	facet normal 0.042878356270853582 -0.026500281565927382 0.01925358156289721 
		outer loop
			vertex -0.26286555610000001 -0.20081141585143097 1.3877787807814457e-17 
			vertex -0.16245984814192069 -0.26286555601335798 -0.30901699430000001 
			vertex -0.13875727573385596 -0.085756712560817822 -0.11803398872012552 
		endloop
	endfacet
	facet normal 0.031027070073636722 -0.019175783883209112 0.013932022499812109 
		outer loop
			vertex -0.13875727573385596 -0.085756712560817822 -0.11803398872012552 
			vertex -0.16245984814192069 -0.26286555601335798 -0.30901699430000001 
			vertex -0.062054140183841366 -0.10040570792671594 -0.30901699430000001 
		endloop
	endfacet
	facet normal 0.001623171343014465 -0.0068758641497180372 -0.0049956077218519289 
		outer loop
			vertex 0.1624598481 0.081229924049999999 -0.24999999995 
			vertex 0.13875727570873986 4.1420408769532457e-11 -0.14589803376901569 
			vertex 0.094255748092440209 0.058253255954830371 -0.24053618484290487 
		endloop
	endfacet
	facet normal 0.016378074716081679 -0.069378637853825961 -0.050406530938857212 
		outer loop
			vertex 0.13875727570873986 4.1420408769532457e-11 -0.14589803376901569 
			vertex 0.062054140165895499 -0.26286555600524891 0.19098300557340336 
			vertex -0.10040570796705225 -0.16245984808173614 -6.6543437426958008e-12 
		endloop
	endfacet
	facet normal 0.0068758641520982201 -0.029126627959031245 -0.021161733910873105 
		outer loop
			vertex 0.13875727570873986 4.1420408769532457e-11 -0.14589803376901569 
			vertex -0.10040570796705225 -0.16245984808173614 -6.6543437426958008e-12 
			vertex 0.094255748092440209 0.058253255954830371 -0.24053618484290487 
		endloop
	endfacet
	facet normal 0.018001246060102782 -0.076254502007808117 -0.055402138663807214 
		outer loop
			vertex 0.094255748092440209 0.058253255954830371 -0.24053618484290487 
			vertex -0.10040570796705225 -0.16245984808173614 -6.6543437426958008e-12 
			vertex -0.26286555610000001 -0.062054140158223359 -0.19098300558671205 
		endloop
	endfacet
	facet normal -0.021200225251063205 -0.016195530956833397 -6.7654215563095477e-17 
		outer loop
			vertex 0.26286555609999995 -0.16245984809999997 -0.11803398873220583 
			vertex 0.18616242054186716 -0.062054140153195422 -0.045084971865183954 
			vertex 0.11755705047342924 0.027751455153315108 -0.19098300559108267 
		endloop
	endfacet
	facet normal -0.062054140155839738 -0.047405144803505155 0. 
		outer loop
			vertex 0.18616242054186716 -0.062054140153195422 -0.045084971865183954 
			vertex -0.06205414018599574 0.26286555605809886 0.19098300558389705 
			vertex -0.03102707009299787 0.22225059402904943 -0.029508497183051471 
		endloop
	endfacet
	facet normal -0.042878356277759523 -0.032756149439485654 -6.9388939039072284e-17 
		outer loop
			vertex 0.18616242054186716 -0.062054140153195422 -0.045084971865183954 
			vertex -0.03102707009299787 0.22225059402904943 -0.029508497183051471 
			vertex 0.11755705047342924 0.027751455153315108 -0.19098300559108267 
		endloop
	endfacet
	facet normal -0.036327126389936459 -0.027751455140388619 3.4694469519536142e-18 
		outer loop
			vertex 0.11755705047342924 0.027751455153315108 -0.19098300559108267 
			vertex -0.03102707009299787 0.22225059402904943 -0.029508497183051471 
			vertex 0. 0.18163563199999999 -0.24999999995 
		endloop
	endfacet
	facet normal 0.0011745378176847283 -0.0049754220389994133 -0.0036148557063212174 
		outer loop
			vertex 0.1624598481 0.081229924049999999 -0.24999999995 
			vertex 0.094255748092440111 0.058253255954830337 -0.24053618484290495 
			vertex 0.062054140199945818 0.10040570792364031 -0.30901699428450696 
		endloop
	endfacet
	facet normal 0.013025824017415734 -0.055178276013394631 -0.040089364148111456 
		outer loop
			vertex 0.094255748092440111 0.058253255954830337 -0.24053618484290495 
			vertex -0.26286555610000001 -0.062054140158223359 -0.19098300558671205 
			vertex -0.26286555610000001 0.05020285397088832 -0.34549150274335605 
		endloop
	endfacet
	facet normal 0.0049754220408605747 -0.021076225986676463 -0.015312774510074468 
		outer loop
			vertex 0.094255748092440111 0.058253255954830337 -0.24053618484290495 
			vertex -0.26286555610000001 0.05020285397088832 -0.34549150274335605 
			vertex 0.062054140199945818 0.10040570792364031 -0.30901699428450696 
		endloop
	endfacet
	facet normal 0.011851286199141449 -0.05020285397189779 -0.036474508439975767 
		outer loop
			vertex 0.062054140199945818 0.10040570792364031 -0.30901699428450696 
			vertex -0.26286555610000001 0.05020285397088832 -0.34549150274335605 
			vertex -0.26286555610000001 0.1624598481 -0.49999999989999999 
		endloop
	endfacet
	facet normal 0.013875727567765114 0.010600112626683346 -1.7347234759768071e-18 
		outer loop
			vertex 0. 0.18163563199999999 -0.24999999995 
			vertex 0.11755705047342928 0.027751455153315081 -0.19098300559108264 
			vertex 0.062054140185368846 0.10040570794272181 -0.30901699431550672 
		endloop
	endfacet
	facet normal 0.036327126391348212 0.027751455141467086 0. 
		outer loop
			vertex 0.11755705047342928 0.027751455153315081 -0.19098300559108264 
			vertex 0.26286555609999995 -0.16245984809999997 -0.11803398873220583 
			vertex 0.26286555609999995 -0.16245984809999997 -0.30901699431610291 
		endloop
	endfacet
	facet normal 0.031027070078029406 0.023702572401836292 -6.9388939039072284e-18 
		outer loop
			vertex 0.11755705047342928 0.027751455153315081 -0.19098300559108264 
			vertex 0.26286555609999995 -0.16245984809999997 -0.30901699431610291 
			vertex 0.062054140185368846 0.10040570794272181 -0.30901699431550672 
		endloop
	endfacet
	facet normal 0.050202853957521346 0.038351567766934269 6.9388939039072284e-18 
		outer loop
			vertex 0.062054140185368846 0.10040570794272181 -0.30901699431550672 
			vertex 0.26286555609999995 -0.16245984809999997 -0.30901699431610291 
			vertex 0.26286555610000001 -0.1624598481 -0.49999999989999999 
		endloop
	endfacet
	facet normal 0.081229924026706327 -0.050202853968771263 -0.036474508437704195 
		outer loop
			vertex -0.26286555609999995 -0.42532540409999986 0.30901699429999985 
			vertex -0.26286555609999995 -0.0620541401572718 -0.1909830055880217 
			vertex -0.16245984813997089 -0.081229924042366244 0.059016994360843622 
		endloop
	endfacet
	facet normal 0.050202853953650269 -0.031027070085920969 -0.022542485938152796 
		outer loop
			vertex -0.26286555609999995 -0.0620541401572718 -0.1909830055880217 
			vertex -0.26286555610000001 0.1624598481 -0.49999999989999999 
			vertex -0.16245984813884956 0.21266270206147692 -0.34549150274194851 
		endloop
	endfacet
	facet normal 0.065716388990805188 -0.040614962027733542 -0.029508497188209994 
		outer loop
			vertex -0.26286555609999995 -0.0620541401572718 -0.1909830055880217 
			vertex -0.16245984813884956 0.21266270206147692 -0.34549150274194851 
			vertex -0.16245984813997089 -0.081229924042366244 0.059016994360843622 
		endloop
	endfacet
	facet normal 0.065716388991365893 -0.040614962028080084 -0.029508497188461769 
		outer loop
			vertex -0.16245984813997089 -0.081229924042366244 0.059016994360843622 
			vertex -0.16245984813884956 0.21266270206147692 -0.34549150274194851 
			vertex -0.062054140177699085 0.26286555602295381 -0.19098300558389703 
		endloop
	endfacet
	facet normal 0.0090535770339245404 0.047405144796633505 8.6736173798840355e-19 
		outer loop
			vertex -0.062054140187009998 -0.10040570792611078 -0.30901699429211044 
			vertex -0.26286555608983803 -0.062054140159212554 -0.19098300556271952 
			vertex -0.18616242054671323 -0.076703135523794833 -1.1102230246251565e-16 
		endloop
	endfacet
	facet normal 0.011851286195216663 0.062054140148742477 1.7347234759768071e-18 
		outer loop
			vertex -0.26286555608983803 -0.062054140159212554 -0.19098300556271952 
			vertex -0.58778525230000001 0. 0. 
			vertex -0.42532540419491904 -0.031027070079606277 0.095491502781359719 
		endloop
	endfacet
	facet normal 0.010122206842411736 0.053000563117537189 8.6736173798840355e-19 
		outer loop
			vertex -0.26286555608983803 -0.062054140159212554 -0.19098300556271952 
			vertex -0.42532540419491904 -0.031027070079606277 0.095491502781359719 
			vertex -0.18616242054671323 -0.076703135523794833 -1.1102230246251565e-16 
		endloop
	endfacet
	facet normal 0.00732449767920947 0.038351567755426572 -8.6736173798840355e-19 
		outer loop
			vertex -0.18616242054671323 -0.076703135523794833 -1.1102230246251565e-16 
			vertex -0.42532540419491904 -0.031027070079606277 0.095491502781359719 
			vertex -0.26286555608983803 -0.062054140159212554 0.19098300556271944 
		endloop
	endfacet
	facet normal -0.16245984807898137 -0.038351567768964381 -0.11803398876422065 
		outer loop
			vertex -0.26286555610000001 0.52573111210000001 0. 
			vertex -0.062054140187009922 0.26286555599104522 -0.19098300556071415 
			vertex -0.2628655560999999 -0.062054140185476669 0.19098300559556722 
		endloop
	endfacet
	facet normal 0.10040570789678392 0.023702572397594962 0.07294901686717685 
		outer loop
			vertex -0.26286555610000001 -0.42532540409999997 0.30901699429999996 
			vertex -0.062054140187009922 0.26286555599104522 -0.19098300556071415 
			vertex -0.2628655560999999 -0.062054140185476669 0.19098300559556722 
		endloop
	endfacet
	facet normal -0.0015860640464731763 0.0067186751190717649 0.0048814032061447431 
		outer loop
			vertex -0.1624598481 0.21266270205000001 -0.15450849715000001 
			vertex -0.10553831902078503 0.19250667668670485 -0.108271182320843 
			vertex -0.062054140183748448 0.26286555599632239 -0.19098300556691783 
		endloop
	endfacet
	facet normal -0.021742089415169662 0.092100968756689161 0.066915270676170507 
		outer loop
			vertex -0.10553831902078503 0.19250667668670485 -0.108271182320843 
			vertex 0.26286555610000001 0.062054140168633205 0.19098300557238407 
			vertex 0.26286555610000001 0.24368977213431661 -0.059016994363807973 
		endloop
	endfacet
	facet normal -0.0076989166098120863 0.032613134119756124 0.023694828910941663 
		outer loop
			vertex -0.10553831902078503 0.19250667668670485 -0.108271182320843 
			vertex 0.26286555610000001 0.24368977213431661 -0.059016994363807973 
			vertex -0.062054140183748448 0.26286555599632239 -0.19098300556691783 
		endloop
	endfacet
	facet normal -0.019175783878589439 0.081229924050204655 0.059016994372596568 
		outer loop
			vertex -0.062054140183748448 0.26286555599632239 -0.19098300556691783 
			vertex 0.26286555610000001 0.24368977213431661 -0.059016994363807973 
			vertex 0.26286555610000001 0.42532540410000003 -0.30901699430000001 
		endloop
	endfacet
	facet normal -0.038351567747368073 -0.0090535770339644269 -0.027864044993950461 
		outer loop
			vertex -0.062054140164274962 0.26286555602966599 0.19098300556323933 
			vertex 0.062054140183748385 0.32491969618007083 6.7940366182416602e-12 
			vertex 0.062054140183748385 0.10040570794484308 0.072949016853828458 
		endloop
	endfacet
	facet normal -0.081229924028997369 -0.019175783882005047 -0.059016994374486528 
		outer loop
			vertex 0.062054140183748385 0.32491969618007083 6.7940366182416602e-12 
			vertex 0.26286555610000001 0.42532540410000003 -0.30901699430000001 
			vertex 0.26286555610000001 0.13143277800000003 -0.21352549151610295 
		endloop
	endfacet
	facet normal -0.062054140145691668 -0.014648995362751476 -0.045084971870520747 
		outer loop
			vertex 0.062054140183748385 0.32491969618007083 6.7940366182416602e-12 
			vertex 0.26286555610000001 0.13143277800000003 -0.21352549151610295 
			vertex 0.062054140183748385 0.10040570794484308 0.072949016853828458 
		endloop
	endfacet
	facet normal -0.081229924028997383 -0.019175783882005047 -0.059016994374486535 
		outer loop
			vertex 0.062054140183748385 0.10040570794484308 0.072949016853828458 
			vertex 0.26286555610000001 0.13143277800000003 -0.21352549151610295 
			vertex 0.26286555610000001 -0.1624598481 -0.11803398873220589 
		endloop
	endfacet
	facet normal 0.0045267885179389178 0.0073244976825874572 0.022542485938989665 
		outer loop
			vertex 0.26286555609813461 0.20081141584841264 -1.850399058016842e-17 
			vertex 0.062054140183748385 0.32491969620098077 -6.9388939039072284e-18 
			vertex 0.062054140183748385 0.21266270206375298 0.03647450842989014 
		endloop
	endfacet
	facet normal 0.009587891941129488 0.015513535042647976 0.047745751410952095 
		outer loop
			vertex 0.062054140183748385 0.32491969620098077 -6.9388939039072284e-18 
			vertex -0.26286555610000001 0.52573111210000001 0. 
			vertex -0.26286555610000001 0.37878479903544415 0.047745751396678013 
		endloop
	endfacet
	facet normal 0.0073244976820269541 0.011851286201138928 0.036474508440794577 
		outer loop
			vertex 0.062054140183748385 0.32491969620098077 -6.9388939039072284e-18 
			vertex -0.26286555610000001 0.37878479903544415 0.047745751396678013 
			vertex 0.062054140183748385 0.21266270206375298 0.03647450842989014 
		endloop
	endfacet
	facet normal 0.009587891941129488 0.015513535042647977 0.047745751410952088 
		outer loop
			vertex 0.062054140183748385 0.21266270206375298 0.03647450842989014 
			vertex -0.26286555610000001 0.37878479903544415 0.047745751396678013 
			vertex -0.26286555610000001 0.23183848597088832 0.095491502793356026 
		endloop
	endfacet
	facet normal 0.0049754220462997836 0.0011745378199239658 0.0036148557126847616 
		outer loop
			vertex 0. -0.18163563199999999 0.24999999995 
			vertex -0.0099508440904558376 -0.11035655201603395 0.24053618483185812 
			vertex -0.062054140199945838 -0.10040570792364026 0.30901699432937035 
		endloop
	endfacet
	facet normal 0.055178276001840311 0.013025824020409044 0.04008936415146698 
		outer loop
			vertex -0.0099508440904558376 -0.11035655201603395 0.24053618483185812 
			vertex -0.062054140164274962 0.26286555602966599 0.19098300556323933 
			vertex -0.16245984813213749 0.21266270206483301 0.34549150273161966 
		endloop
	endfacet
	facet normal 0.021076225997652208 0.0049754220456367931 0.015312774522536984 
		outer loop
			vertex -0.0099508440904558376 -0.11035655201603395 0.24053618483185812 
			vertex -0.16245984813213749 0.21266270206483301 0.34549150273161966 
			vertex -0.062054140199945838 -0.10040570792364026 0.30901699432937035 
		endloop
	endfacet
	facet normal 0.05020285395697055 0.011851286200822663 0.036474508439821196 
		outer loop
			vertex -0.062054140199945838 -0.10040570792364026 0.30901699432937035 
			vertex -0.16245984813213749 0.21266270206483301 0.34549150273161966 
			vertex -0.26286555610000001 0.1624598481 0.49999999989999999 
		endloop
	endfacet
	facet normal -0.01464899536282387 -0.076703135533917707 -8.6736173798840355e-18 
		outer loop
			vertex -0.26286555608983803 -0.062054140159212554 0.19098300556271944 
			vertex 0.13875727573297061 -0.13875727569628482 0.04508497186135163 
			vertex -0.062054140176359684 -0.10040570792814481 0.30901699429837043 
		endloop
	endfacet
	facet normal -0.005925643099743666 -0.03102707008555193 0. 
		outer loop
			vertex 0.13875727573297061 -0.13875727569628482 0.04508497186135163 
			vertex 0.26286555610000001 -0.1624598481 0. 
			vertex 0.26286555610000001 -0.1624598481 0.24999999995 
		endloop
	endfacet
	facet normal -0.014114680457924529 -0.073905426370032279 -1.474514954580286e-17 
		outer loop
			vertex 0.13875727573297061 -0.13875727569628482 0.04508497186135163 
			vertex 0.26286555610000001 -0.1624598481 0.24999999995 
			vertex -0.062054140176359684 -0.10040570792814481 0.30901699429837043 
		endloop
	endfacet
	facet normal -0.01551353503986109 -0.081229924052843933 0. 
		outer loop
			vertex -0.062054140176359684 -0.10040570792814481 0.30901699429837043 
			vertex 0.26286555610000001 -0.1624598481 0.24999999995 
			vertex 0.26286555610000001 -0.1624598481 0.49999999989999999 
		endloop
	endfacet
	facet normal -0.13640820003122725 -0.032201607902506105 -0.099106358526236449 
		outer loop
			vertex -0.062054140164274962 0.26286555602966599 0.19098300556323933 
			vertex 0.26286555610000001 -0.1624598481 -0.11803398873220594 
			vertex -0.0099508440904557127 -0.110356552016034 0.24053618483185818 
		endloop
	endfacet
	facet normal 0.026051648042521948 0.0061499598652231093 0.018927630234182768 
		outer loop
			vertex 0. -0.18163563199999999 0.24999999995 
			vertex 0.26286555610000001 -0.1624598481 -0.11803398873220594 
			vertex -0.0099508440904557127 -0.110356552016034 0.24053618483185818 
		endloop
	endfacet
	facet normal -0.00117453781918739 -0.0061499598643791099 -0. 
		outer loop
			vertex 0.26286555610000001 -0.1624598481 0. 
			vertex 0.21076226000338105 -0.15250900401006445 -0.049553179251610478 
			vertex 0.26286555610000001 -0.1624598481 -0.11803398873220591 
		endloop
	endfacet
	facet normal -0.013025824018383252 -0.068204100033956938 -8.6736173798840355e-19 
		outer loop
			vertex 0.21076226000338105 -0.15250900401006445 -0.049553179251610478 
			vertex -0.062054140187009998 -0.10040570792611078 -0.30901699429211044 
			vertex 0.10040570795649501 -0.13143277801305539 -0.40450849709605519 
		endloop
	endfacet
	facet normal -0.0049754220438347364 -0.026051648042376814 -8.6736173798840355e-19 
		outer loop
			vertex 0.21076226000338105 -0.15250900401006445 -0.049553179251610478 
			vertex 0.10040570795649501 -0.13143277801305539 -0.40450849709605519 
			vertex 0.26286555610000001 -0.1624598481 -0.11803398873220591 
		endloop
	endfacet
	facet normal -0.011851286199333812 -0.062054140170300157 -0. 
		outer loop
			vertex 0.26286555610000001 -0.1624598481 -0.11803398873220591 
			vertex 0.10040570795649501 -0.13143277801305539 -0.40450849709605519 
			vertex 0.26286555610000001 -0.1624598481 -0.49999999989999999 
		endloop
	endfacet
	facet normal -0.0073244976818024827 -0.0017290793543073219 -0.0053215590639794988 
		outer loop
			vertex 0. -0.18163563199999999 0.24999999995 
			vertex 0.062054140183748441 -0.17710884347769099 0.16311896058940167 
			vertex 0.062054140183748441 -0.26286555605515699 0.1909830055860344 
		endloop
	endfacet
	facet normal -0.050202853961019908 -0.011851286201778576 -0.036474508442763218 
		outer loop
			vertex 0.062054140183748441 -0.17710884347769099 0.16311896058940167 
			vertex 0.26286555610000001 -0.1624598481 -0.11803398873220589 
			vertex 0.26286555610000001 -0.34409548010000002 -0.059016994366102943 
		endloop
	endfacet
	facet normal -0.02370257239892052 -0.0055954183289279626 -0.017220926877003967 
		outer loop
			vertex 0.062054140183748441 -0.17710884347769099 0.16311896058940167 
			vertex 0.26286555610000001 -0.34409548010000002 -0.059016994366102943 
			vertex 0.062054140183748441 -0.26286555605515699 0.1909830055860344 
		endloop
	endfacet
	facet normal -0.050202853961019901 -0.011851286201778576 -0.036474508442763211 
		outer loop
			vertex 0.062054140183748441 -0.26286555605515699 0.1909830055860344 
			vertex 0.26286555610000001 -0.34409548010000002 -0.059016994366102943 
			vertex 0.26286555610000001 -0.52573111210000001 0. 
		endloop
	endfacet
	facet normal -0.0027977091632077817 -0.0045267885171271921 -0.013932022497421431 
		outer loop
			vertex 0.26286555607794143 -0.1624598480728327 0.11803398871067203 
			vertex 0.062054140183748441 -0.26286555599632244 0.19098300556691788 
			vertex 0.062054140183748441 -0.19348691815651867 0.16844051963816797 
		endloop
	endfacet
	facet normal -0.0059256430994310584 -0.0095878919409702335 -0.029508497187143882 
		outer loop
			vertex 0.062054140183748441 -0.26286555599632244 0.19098300556691788 
			vertex -0.26286555610000001 -0.42532540410000003 0.30901699430000001 
			vertex -0.26286555610000001 -0.33450758811455583 0.27950849712167802 
		endloop
	endfacet
	facet normal -0.0045267885172359853 -0.0073244976814500944 -0.022542485935489222 
		outer loop
			vertex 0.062054140183748441 -0.26286555599632244 0.19098300556691788 
			vertex -0.26286555610000001 -0.33450758811455583 0.27950849712167802 
			vertex 0.062054140183748441 -0.19348691815651867 0.16844051963816797 
		endloop
	endfacet
	facet normal -0.0059256430994310515 -0.00958789194097023 -0.029508497187143864 
		outer loop
			vertex 0.062054140183748441 -0.19348691815651867 0.16844051963816797 
			vertex -0.26286555610000001 -0.33450758811455583 0.27950849712167802 
			vertex -0.26286555610000001 -0.24368977212911169 0.24999999994335603 
		endloop
	endfacet
	facet normal -0.16245984807347519 -0.12410828033935445 1.4591969633342012e-17 
		outer loop
			vertex 0.26286555610000001 -0.1624598481 0.49999999989999999 
			vertex -0.062054140183748295 0.26286555605515688 0.19098300558603445 
			vertex 0.26286555609999995 -0.16245984809999997 0.11803398873220589 
		endloop
	endfacet
	facet normal 0.10040570792314137 0.076703135540055381 -0. 
		outer loop
			vertex 0.26286555609999995 -0.16245984809999997 -0.11803398873220583 
			vertex -0.062054140183748295 0.26286555605515688 0.19098300558603445 
			vertex 0.26286555609999995 -0.16245984809999997 0.11803398873220589 
		endloop
	endfacet
	facet normal -0.038351567756880145 -0.062054140158233753 0.19098300560577391 
		outer loop
			vertex 0.26286555610000001 0.42532540410000003 0.30901699430000001 
			vertex -0.062054140151225401 0.26286555601258388 0.1909830055787326 
			vertex 0.26286555609999995 -0.16245984809999997 0.11803398873220589 
		endloop
	endfacet
	facet normal -0.019175783882413706 -0.031027070085546324 0.095491502822674754 
		outer loop
			vertex -0.062054140151225401 0.26286555601258388 0.1909830055787326 
			vertex -0.26286555607888545 0.16245984807236069 0.11803398871032914 
			vertex 1.0557221763463076e-11 -0.1816356320138196 0.059016994355164581 
		endloop
	endfacet
	facet normal -0.023702572399150593 -0.038351567766188907 0.11803398875567872 
		outer loop
			vertex -0.062054140151225401 0.26286555601258388 0.1909830055787326 
			vertex 1.0557221763463076e-11 -0.1816356320138196 0.059016994355164581 
			vertex 0.26286555609999995 -0.16245984809999997 0.11803398873220589 
		endloop
	endfacet
	facet normal -0.019175783882413682 -0.031027070085546306 0.09549150282267474 
		outer loop
			vertex 0.26286555609999995 -0.16245984809999997 0.11803398873220589 
			vertex 1.0557221763463076e-11 -0.1816356320138196 0.059016994355164581 
			vertex 0.2628655560999999 -0.5257311120999999 2.7755575615628914e-17 
		endloop
	endfacet
	facet normal -0.0073244976818817049 -0.0055954183290680068 0. 
		outer loop
			vertex 0. 0.18163563199999999 -0.24999999995 
			vertex -0.014648995369930938 0.20081141588581836 -0.14589803371661481 
			vertex -0.062054140185995844 0.26286555605809891 -0.19098300558389691 
		endloop
	endfacet
	facet normal -0.050202853957364603 -0.038351567766814518 8.6736173798840355e-18 
		outer loop
			vertex -0.014648995369930938 0.20081141588581836 -0.14589803371661481 
			vertex -0.06205414018599574 0.26286555605809886 0.19098300558389705 
			vertex -0.16245984814299788 0.39429833407904946 0.095491502791948527 
		endloop
	endfacet
	facet normal -0.023702572398053161 -0.018107154074223933 3.4694469519536142e-18 
		outer loop
			vertex -0.014648995369930938 0.20081141588581836 -0.14589803371661481 
			vertex -0.16245984814299788 0.39429833407904946 0.095491502791948527 
			vertex -0.062054140185995844 0.26286555605809891 -0.19098300558389691 
		endloop
	endfacet
	facet normal -0.050202853957364582 -0.038351567766814525 1.0408340855860843e-17 
		outer loop
			vertex -0.062054140185995844 0.26286555605809891 -0.19098300558389691 
			vertex -0.16245984814299788 0.39429833407904946 0.095491502791948527 
			vertex -0.26286555610000001 0.52573111210000001 0. 
		endloop
	endfacet
	facet normal -0.031027070071350006 -0.0073244976810226386 0.022542485934173573 
		outer loop
			vertex 0.062054140190891838 0.32491969618364253 4.1990022570104202e-12 
			vertex -0.062054140164274948 0.26286555602966588 -0.19098300556323911 
			vertex 0.038351567783231025 0.13143277802114595 -0.095491502780322049 
		endloop
	endfacet
	facet normal -0.065716389001381451 -0.01551353504339625 0.047745751413254947 
		outer loop
			vertex -0.062054140164274948 0.26286555602966588 -0.19098300556323911 
			vertex -0.26286555610000001 0.1624598481 -0.49999999989999999 
			vertex -0.13143277805 -0.0095878919499999965 -0.37499999992499999 
		endloop
	endfacet
	facet normal -0.050202853955709996 -0.011851286200525109 0.036474508438905331 
		outer loop
			vertex -0.062054140164274948 0.26286555602966588 -0.19098300556323911 
			vertex -0.13143277805 -0.0095878919499999965 -0.37499999992499999 
			vertex 0.038351567783231025 0.13143277802114595 -0.095491502780322049 
		endloop
	endfacet
	facet normal -0.065716389001381451 -0.01551353504339625 0.047745751413254961 
		outer loop
			vertex 0.038351567783231025 0.13143277802114595 -0.095491502780322049 
			vertex -0.13143277805 -0.0095878919499999965 -0.37499999992499999 
			vertex 0. -0.18163563199999999 -0.24999999995 
		endloop
	endfacet
	facet normal -0.0065512298852710409 -0.034302685020915352 1.7347234759768071e-18 
		outer loop
			vertex -0.26286555608983803 -0.062054140159212554 0.19098300556271944 
			vertex -0.20736264580344343 -0.072654252784974671 0.052786404486171279 
			vertex 0.027751455126435468 -0.1175570504383157 0.085410196606157784 
		endloop
	endfacet
	facet normal -0.015513535039061624 -0.081229924048657892 -1.7347234759768071e-18 
		outer loop
			vertex -0.20736264580344343 -0.072654252784974671 0.052786404486171279 
			vertex -0.062054140187009998 -0.10040570792611078 -0.30901699429211044 
			vertex 0.10040570795649501 -0.13143277801305539 -0.15450849714605522 
		endloop
	endfacet
	facet normal -0.011225699410721388 -0.058778525218783316 6.9388939039072284e-18 
		outer loop
			vertex -0.20736264580344343 -0.072654252784974671 0.052786404486171279 
			vertex 0.10040570795649501 -0.13143277801305539 -0.15450849714605522 
			vertex 0.027751455126435468 -0.1175570504383157 0.085410196606157784 
		endloop
	endfacet
	facet normal -0.0095878919405992195 -0.050202853969814637 4.7704895589362195e-18 
		outer loop
			vertex 0.027751455126435468 -0.1175570504383157 0.085410196606157784 
			vertex 0.10040570795649501 -0.13143277801305539 -0.15450849714605522 
			vertex 0.26286555610000001 -0.1624598481 0. 
		endloop
	endfacet
	facet normal 0.023702572391203408 0.03835156775333004 -0.11803398871610318 
		outer loop
			vertex -0.26286555607888545 0.16245984807236069 0.11803398871032914 
			vertex -0.062054140199945929 -0.10040570792364023 0.07294901685746509 
			vertex -0.58778525230000001 -8.3266726846886741e-17 0. 
		endloop
	endfacet
	facet normal -0.038351567759076756 -0.062054140161787889 0.19098300561671239 
		outer loop
			vertex 0.2628655560999999 -0.5257311120999999 2.7755575615628914e-17 
			vertex -0.062054140199945929 -0.10040570792364023 0.07294901685746509 
			vertex -0.58778525230000001 -8.3266726846886741e-17 0. 
		endloop
	endfacet
	facet normal -0.058253255918511451 0.036002492124958707 -0.026157341644501824 
		outer loop
			vertex -0.26286555610000001 -0.062054140157271787 0.19098300558802178 
			vertex -0.17856065209945365 0.052103296076817671 0.16035745656268838 
			vertex -0.062054140199945595 -0.10040570792364029 -0.30901699425990237 
		endloop
	endfacet
	facet normal 0.12338237599628071 -0.076254502003779145 0.055402138660879931 
		outer loop
			vertex 0. 0.2938926261 0.095491502799999989 
			vertex -0.17856065209945365 0.052103296076817671 0.16035745656268838 
			vertex -0.062054140199945595 -0.10040570792364029 -0.30901699425990237 
		endloop
	endfacet
	facet normal 0.21266270204055182 0.1624598481135883 1.1102230246251565e-16 
		outer loop
			vertex 0.26286555610000001 -0.52573111210000001 7.4278518684954117e-18 
			vertex -0.16245984814109282 0.0310270700765557 0.09549150278427368 
			vertex -0.26286555610000001 0.16245984809999978 0.49999999989999999 
		endloop
	endfacet
	facet normal -0.050202853960569407 -0.038351567769262795 -2.5081363975447819e-17 
		outer loop
			vertex -0.26286555610000001 0.16245984810000003 0.11803398871506965 
			vertex -0.16245984814109282 0.0310270700765557 0.09549150278427368 
			vertex -0.26286555610000001 0.16245984809999978 0.49999999989999999 
		endloop
	endfacet
	facet normal -0.044902797641320498 0.027751455141523454 -0.020162612375537826 
		outer loop
			vertex -0.062054140183841366 -0.10040570792671594 -0.30901699430000001 
			vertex -0.027751455146964435 0.1175570504422364 -0.085410196596356847 
			vertex 0.062054140183841325 0.10040570792671591 -0.30901699430000001 
		endloop
	endfacet
	facet normal -0.047552825795584695 0.029389262612547512 -0.02135254915599186 
		outer loop
			vertex -0.027751455146964435 0.1175570504422364 -0.085410196596356847 
			vertex 0. 0.2938926261 0.095491502799999989 
			vertex 0.13143277805 0.35960901509999998 -0.10676274575000001 
		endloop
	endfacet
	facet normal -0.054490689579111545 0.033677098241509974 -0.024467844093713238 
		outer loop
			vertex -0.027751455146964435 0.1175570504422364 -0.085410196596356847 
			vertex 0.13143277805 0.35960901509999998 -0.10676274575000001 
			vertex 0.062054140183841325 0.10040570792671591 -0.30901699430000001 
		endloop
	endfacet
	facet normal -0.065716388988621893 0.040614962026384191 -0.029508497187229612 
		outer loop
			vertex 0.062054140183841325 0.10040570792671591 -0.30901699430000001 
			vertex 0.13143277805 0.35960901509999998 -0.10676274575000001 
			vertex 0.26286555610000001 0.42532540410000003 -0.30901699430000001 
		endloop
	endfacet
	facet normal 0.0073244976797257697 0.038351567758129937 -3.4694469519536142e-18 
		outer loop
			vertex 0.26286555605918144 0.062054140165067391 -0.19098300558073894 
			vertex 0.062054140181882982 0.10040570792708992 -0.30901699429512397 
			vertex 2.8604896229467158e-12 0.11225699412808957 -0.1545084971511331 
		endloop
	endfacet
	facet normal 0.011851286198286522 0.062054140164816418 -6.9388939039072284e-18 
		outer loop
			vertex 0.062054140181882982 0.10040570792708992 -0.30901699429512397 
			vertex -0.26286555610000001 0.1624598481 -0.49999999989999999 
			vertex -0.26286555606912526 0.16245984809410347 -0.30901699431181889 
		endloop
	endfacet
	facet normal 0.0095878919389656772 0.050202853961261278 -2.6020852139652106e-18 
		outer loop
			vertex 0.062054140181882982 0.10040570792708992 -0.30901699429512397 
			vertex -0.26286555606912526 0.16245984809410347 -0.30901699431181889 
			vertex 2.8604896229467158e-12 0.11225699412808957 -0.1545084971511331 
		endloop
	endfacet
	facet normal 0.0095878919386228056 0.050202853959465978 1.7347234759768071e-18 
		outer loop
			vertex 2.8604896229467158e-12 0.11225699412808957 -0.1545084971511331 
			vertex -0.26286555606912526 0.16245984809410347 -0.30901699431181889 
			vertex -0.26286555603825051 0.1624598480882069 -0.11803398872363777 
		endloop
	endfacet
	facet normal 0.11755705043799809 0.089805595318716652 0. 
		outer loop
			vertex 0.26286555610000001 -0.52573111210000001 7.4278518684954117e-18 
			vertex -0.062054140196460043 -0.10040570792820326 -0.30901699432605517 
			vertex 0.027751455134214176 -0.21796275838185403 0.052786404487303817 
		endloop
	endfacet
	facet normal 0.081229924030814263 0.062054140165152212 0. 
		outer loop
			vertex -0.062054140196460043 -0.10040570792820326 -0.30901699432605517 
			vertex -0.26286555610000001 0.1624598481 -0.49999999989999999 
			vertex -0.26286555610000001 0.16245984810000003 -0.19098300559246517 
		endloop
	endfacet
	facet normal 0.10898137917076768 0.083254365421897902 0. 
		outer loop
			vertex -0.062054140196460043 -0.10040570792820326 -0.30901699432605517 
			vertex -0.26286555610000001 0.16245984810000003 -0.19098300559246517 
			vertex 0.027751455134214176 -0.21796275838185403 0.052786404487303817 
		endloop
	endfacet
	facet normal 0.11755705042166066 0.089805595306235941 0. 
		outer loop
			vertex 0.027751455134214176 -0.21796275838185403 0.052786404487303817 
			vertex -0.26286555610000001 0.16245984810000003 -0.19098300559246517 
			vertex -0.26286555610000001 0.16245984810000003 0.11803398871506965 
		endloop
	endfacet
	facet normal -0.16245984803722929 0.10040570792754056 0.072949016868141509 
		outer loop
			vertex -0.26286555610000001 -0.42532540410000003 -0.30901699430000001 
			vertex 0.0620541401642749 -0.26286555602966588 0.19098300556323952 
			vertex -0.06205414018999271 -0.1004057079366691 -0.30901699429999996 
		endloop
	endfacet
	facet normal 0.050202853954602999 -0.031027070086509803 -0.022542485938580582 
		outer loop
			vertex 0. 0. -0.30901699430000001 
			vertex 0.0620541401642749 -0.26286555602966588 0.19098300556323952 
			vertex -0.06205414018999271 -0.1004057079366691 -0.30901699429999996 
		endloop
	endfacet
	facet normal -0.021439178138976618 -0.034689318922946182 -0.10676274578018545 
		outer loop
			vertex -0.26286555610000001 0.23183848597088832 0.095491502793356026 
			vertex 0.26286555609813456 0.20081141584841261 4.163336342344337e-17 
			vertex 0.10040570796395139 0.0073244976884256213 0.095491502785438304 
		endloop
	endfacet
	facet normal 0.0036622488402737775 0.0059256430993725982 0.018237254216713718 
		outer loop
			vertex 0.16245984814129022 -0.031027070076099589 0.095491502784085788 
			vertex 0.26286555609813456 0.20081141584841261 4.163336342344337e-17 
			vertex 0.10040570796395139 0.0073244976884256213 0.095491502785438304 
		endloop
	endfacet
	facet normal 0.041369426763467596 -0.025567711843425111 0.018576029999129225 
		outer loop
			vertex 0.062054140187009763 0.10040570793184279 0.30901699429999996 
			vertex 0.06205414018700979 -0.038351567757821343 0.11803398871816501 
			vertex 0.19592841745860459 0.12109042131003768 0.039344662907517661 
		endloop
	endfacet
	facet normal 0.050202853952039293 -0.031027070084925352 0.022542485937429451 
		outer loop
			vertex 0.06205414018700979 -0.038351567757821343 0.11803398871816501 
			vertex 0.062054140187009943 -0.26286555601829847 -0.19098300559822501 
			vertex 0.16245984814350498 -0.065716389009149223 -0.14323725419911248 
		endloop
	endfacet
	facet normal 0.043810925992158363 -0.027076641350764444 0.01967233145803805 
		outer loop
			vertex 0.06205414018700979 -0.038351567757821343 0.11803398871816501 
			vertex 0.16245984814350498 -0.065716389009149223 -0.14323725419911248 
			vertex 0.19592841745860459 0.12109042131003768 0.039344662907517661 
		endloop
	endfacet
	facet normal 0.027076641343344608 -0.016734284656942579 0.012158169479732779 
		outer loop
			vertex 0.19592841745860459 0.12109042131003768 0.039344662907517661 
			vertex 0.16245984814350498 -0.065716389009149223 -0.14323725419911248 
			vertex 0.26286555610000001 0.13143277800000003 -0.095491502799999989 
		endloop
	endfacet
	facet normal 0.0073244976816108469 0.011851286200465652 0.036474508438722478 
		outer loop
			vertex 0.16245984814129022 -0.031027070076099589 0.095491502784085788 
			vertex -0.038351567766139238 0.093081210258698588 0.095491502788462607 
			vertex -0.10040570795442055 -0.050202853957871024 0.15450849715197273 
		endloop
	endfacet
	facet normal 0.006625070391353587 0.010719589072065182 0.032991502817079542 
		outer loop
			vertex -0.038351567766139238 0.093081210258698588 0.095491502788462607 
			vertex -0.26286555610000001 0.23183848597088832 0.095491502793356026 
			vertex -0.26286555610000001 0.084892172906332483 0.14323725419003402 
		endloop
	endfacet
	facet normal 0.0063579129386239636 0.010287319233160697 0.031661113050076267 
		outer loop
			vertex -0.038351567766139238 0.093081210258698588 0.095491502788462607 
			vertex -0.26286555610000001 0.084892172906332483 0.14323725419003402 
			vertex -0.10040570795442055 -0.050202853957871024 0.15450849715197273 
		endloop
	endfacet
	facet normal 0.0047939459706740819 0.0077567675215009001 0.023872875706020518 
		outer loop
			vertex -0.10040570795442055 -0.050202853957871024 0.15450849715197273 
			vertex -0.26286555610000001 0.084892172906332483 0.14323725419003402 
			vertex -0.26286555610000001 -0.062054140158223359 0.19098300558671205 
		endloop
	endfacet
	facet normal 0.045408907976463131 -0.028064248530803141 -0.020389870075341893 
		outer loop
			vertex 2.7755575615628914e-17 8.3266726846886741e-17 0.30901699429999996 
			vertex -0.050202853975397602 0.065716389005772716 0.10676274575935837 
			vertex 0.062054140179333098 0.32491969615695349 1.5192028191002294e-11 
		endloop
	endfacet
	facet normal -0.045408907979396999 0.028064248532616361 0.020389870076659277 
		outer loop
			vertex -0.10040570795403882 0.13143277801579126 -0.095491502794350799 
			vertex -0.050202853975397602 0.065716389005772716 0.10676274575935837 
			vertex 0.062054140179333098 0.32491969615695349 1.5192028191002294e-11 
		endloop
	endfacet
	facet normal -0. -3.8251338392276547e-18 -9.2868287951265554e-18 
		outer loop
			vertex 0.062054140173960312 -0.26286555602482309 0.19098300557814393 
			vertex 0.062054140173960187 -0.26286555602482309 0.19098300557814393 
			vertex 0.094255748096310016 -0.18851149611160434 0.16035745654172093 
		endloop
	endfacet
	facet normal -0.081229924031360118 0.050202853971647525 0.036474508439793919 
		outer loop
			vertex 0.062054140173960187 -0.26286555602482309 0.19098300557814393 
			vertex 0.26286555610000001 -0.1624598481 0.49999999989999999 
			vertex 0.26286555610000006 0.019175783876359986 0.24999999994911293 
		endloop
	endfacet
	facet normal -0.013025824020799253 0.008050401979005941 0.0058489594056309619 
		outer loop
			vertex 0.062054140173960187 -0.26286555602482309 0.19098300557814393 
			vertex 0.26286555610000006 0.019175783876359986 0.24999999994911293 
			vertex 0.094255748096310016 -0.18851149611160434 0.16035745654172093 
		endloop
	endfacet
	facet normal -0.068204100010560889 0.042152451992641594 0.030625549034162966 
		outer loop
			vertex 0.094255748096310016 -0.18851149611160434 0.16035745654172093 
			vertex 0.26286555610000006 0.019175783876359986 0.24999999994911293 
			vertex 0.26286555610000006 0.20081141585271997 -1.7741641489266158e-12 
		endloop
	endfacet
	facet normal 0.00066696095433257593 0.0010791654933792936 0.0033213298733342986 
		outer loop
			vertex 0.20736264579609839 -0.02775145513321986 0.085410196599827515 
			vertex 0.18616242054486223 0.023702572395244176 0.07294901685650762 
			vertex 0.15308332631048496 -0.052677618324077385 0.10440910496758143 
		endloop
	endfacet
	facet normal -0.01045243161540031 -0.016912389620370727 -0.052050983116325063 
		outer loop
			vertex 0.18616242054486223 0.023702572395244176 0.07294901685650762 
			vertex 0.26286555607794143 -0.1624598480728327 0.11803398871067203 
			vertex -1.1029288593533693e-11 -0.2030748101009722 0.18401699432701402 
		endloop
	endfacet
	facet normal 0.0013489568670769329 0.0021826580604905532 0.0067175307810117824 
		outer loop
			vertex 0.18616242054486223 0.023702572395244176 0.07294901685650762 
			vertex -1.1029288593533693e-11 -0.2030748101009722 0.18401699432701402 
			vertex 0.15308332631048496 -0.052677618324077385 0.10440910496758143 
		endloop
	endfacet
	facet normal -0.0066903873462232331 -0.010825274125095707 -0.033316767964963447 
		outer loop
			vertex 0.15308332631048496 -0.052677618324077385 0.10440910496758143 
			vertex -1.1029288593533693e-11 -0.2030748101009722 0.18401699432701402 
			vertex -0.26286555610000001 -0.24368977212911169 0.24999999994335603 
		endloop
	endfacet
	facet normal 2.6164401314464005e-17 -1.596676259294648e-17 -1.1253931460781242e-17 
		outer loop
			vertex 0.062054140173960312 -0.26286555602482309 0.19098300557814393 
			vertex 0.062054140173960298 -0.26286555602482303 0.19098300557814382 
			vertex 0.19058941363370607 0.033924574667833864 0.068738696233598823 
		endloop
	endfacet
	facet normal 0.090817815964606294 -0.056128497068825126 -0.040779740155928473 
		outer loop
			vertex 0.062054140173960298 -0.26286555602482303 0.19098300557814382 
			vertex 0. 0. -0.30901699430000001 
			vertex 0.13143277805000003 0.10040570792635999 -0.1545084971508871 
		endloop
	endfacet
	facet normal 0.058130623481719261 -0.035926701110872726 -0.026102276249524447 
		outer loop
			vertex 0.062054140173960298 -0.26286555602482303 0.19098300557814382 
			vertex 0.13143277805000003 0.10040570792635999 -0.1545084971508871 
			vertex 0.19058941363370607 0.033924574667833864 0.068738696233598823 
		endloop
	endfacet
	facet normal 0.032687192482887081 -0.020201795957952417 -0.01467746390640404 
		outer loop
			vertex 0.19058941363370607 0.033924574667833864 0.068738696233598823 
			vertex 0.13143277805000003 0.10040570792635999 -0.1545084971508871 
			vertex 0.26286555610000006 0.20081141585271997 -1.7741641489266158e-12 
		endloop
	endfacet
	facet normal -0.00018905517497800549 -0.0003058976988918518 -0.00094145631207338636 
		outer loop
			vertex 0.20736264579609839 -0.02775145513321986 0.085410196599827515 
			vertex 0.15308332631048494 -0.052677618324077455 0.10440910496758146 
			vertex 0.16245984814129022 -0.03102707007609962 0.095491502784085788 
		endloop
	endfacet
	facet normal -0.0075857655074849633 -0.012274026422935978 -0.037775569062106572 
		outer loop
			vertex 0.15308332631048494 -0.052677618324077455 0.10440910496758146 
			vertex -0.26286555610000001 -0.24368977212911169 0.24999999994335603 
			vertex -0.26286555610000001 -0.15287195614366753 0.22049150276503404 
		endloop
	endfacet
	facet normal -0.0016197543085408235 -0.0026208175248862882 -0.0080660469514321972 
		outer loop
			vertex 0.15308332631048494 -0.052677618324077455 0.10440910496758146 
			vertex -0.26286555610000001 -0.15287195614366753 0.22049150276503404 
			vertex 0.16245984814129022 -0.03102707007609962 0.095491502784085788 
		endloop
	endfacet
	facet normal -0.0077567675197324926 -0.012550713490922773 -0.038627124296320148 
		outer loop
			vertex 0.16245984814129022 -0.03102707007609962 0.095491502784085788 
			vertex -0.26286555610000001 -0.15287195614366753 0.22049150276503404 
			vertex -0.26286555610000001 -0.062054140158223359 0.19098300558671205 
		endloop
	endfacet
	facet normal 0.072654252770567723 -0.044902797654369518 -0.032623792124241088 
		outer loop
			vertex 0.26286555610000006 0.20081141585271997 -1.7741641489266158e-12 
			vertex 0.1175570504744655 0.089805595299319141 -0.17082039321178258 
			vertex 0.26286555610000001 0.42532540409999997 -0.30901699430000001 
		endloop
	endfacet
	facet normal -0.058778525203092576 0.036327126396184142 0.026393202248609061 
		outer loop
			vertex 0. 0. -0.30901699430000001 
			vertex 0.1175570504744655 0.089805595299319141 -0.17082039321178258 
			vertex 0.26286555610000001 0.42532540409999997 -0.30901699430000001 
		endloop
	endfacet
	facet normal 0.010600112624713784 0.017151342512954974 0.052786404500096799 
		outer loop
			vertex 0.26286555609999995 0.062054140157271745 -0.1909830055864028 
			vertex 0.26286555610000001 0.42532540410000003 -0.30901699430000001 
			vertex 0.11755705047479623 0.089805595300082808 -0.1708203932120971 
		endloop
	endfacet
	facet normal -0.027751455131575058 -0.044902797644321979 -0.13819660110273238 
		outer loop
			vertex -0.26286555604472145 0.16245984808944272 -0.11803398872273987 
			vertex 0.26286555610000001 0.42532540410000003 -0.30901699430000001 
			vertex 0.11755705047479623 0.089805595300082808 -0.1708203932120971 
		endloop
	endfacet
	facet normal -9.0827309333657148e-18 -9.2633167408594561e-18 -2.2797120237161158e-17 
		outer loop
			vertex 0.26286555610000001 -0.16245984812637002 0.11803398872363774 
			vertex 0.2628655560999999 -0.16245984812637004 0.11803398872363779 
			vertex 0.18616242054486223 0.023702572395244315 0.072949016856507579 
		endloop
	endfacet
	facet normal -0.081229924029751918 -0.019175783882183182 0.059016994375034819 
		outer loop
			vertex 0.2628655560999999 -0.16245984812637004 0.11803398872363779 
			vertex 0.26286555610000001 0.42532540410000003 0.30901699430000001 
			vertex 0.16245984814544592 0.37512255014182128 0.15450849715209952 
		endloop
	endfacet
	facet normal -0.031027070078564256 -0.0073244976827256704 0.022542485939415005 
		outer loop
			vertex 0.2628655560999999 -0.16245984812637004 0.11803398872363779 
			vertex 0.16245984814544592 0.37512255014182128 0.15450849715209952 
			vertex 0.18616242054486223 0.023702572395244315 0.072949016856507579 
		endloop
	endfacet
	facet normal -0.05020285395118769 -0.011851286199457533 0.036474508435619758 
		outer loop
			vertex 0.18616242054486223 0.023702572395244315 0.072949016856507579 
			vertex 0.16245984814544592 0.37512255014182128 0.15450849715209952 
			vertex 0.062054140190891838 0.32491969618364253 4.1990022570104202e-12 
		endloop
	endfacet
	facet normal 0.00047790577935457077 0.00077326779448744362 0.0023798735612609169 
		outer loop
			vertex 0.16245984814129022 -0.031027070076099589 0.095491502784085788 
			vertex 0.20736264579609837 -0.027751455133219805 0.085410196599827515 
			vertex 0.18616242054486226 0.023702572395244273 0.072949016856507592 
		endloop
	endfacet
	facet normal 0.0085756712535513153 0.013875727565878779 0.04270509830191873 
		outer loop
			vertex 0.20736264579609837 -0.027751455133219805 0.085410196599827515 
			vertex 0.58778525229999978 -1.3877787807814457e-17 5.5511151231257827e-17 
			vertex 0.42532540419906717 0.10040570792420631 1.8503580325544704e-17 
		endloop
	endfacet
	facet normal 0.0027977091628065068 0.004526788516477912 0.013932022495423149 
		outer loop
			vertex 0.20736264579609837 -0.027751455133219805 0.085410196599827515 
			vertex 0.42532540419906717 0.10040570792420631 1.8503580325544704e-17 
			vertex 0.18616242054486226 0.023702572395244273 0.072949016856507592 
		endloop
	endfacet
	facet normal 0.0073244976798525017 0.011851286197620596 0.036474508429966246 
		outer loop
			vertex 0.18616242054486226 0.023702572395244273 0.072949016856507592 
			vertex 0.42532540419906717 0.10040570792420631 1.8503580325544704e-17 
			vertex 0.26286555609813461 0.20081141584841264 -1.850399058016842e-17 
		endloop
	endfacet
	facet normal -0.027751455147008521 -0.006551229890603181 0.020162612385432661 
		outer loop
			vertex 0.26286555610000001 -0.16245984812637002 0.11803398872363774 
			vertex 0.20736264579609839 -0.027751455133219836 0.085410196599827487 
			vertex 0.1175570504430504 -0.17305996074978955 -0.085410196656011628 
		endloop
	endfacet
	facet normal -0.065716388989895458 -0.015513535040684799 0.047745751404909935 
		outer loop
			vertex 0.20736264579609839 -0.027751455133219836 0.085410196599827487 
			vertex 0.062054140190891838 0.32491969618364253 4.1990022570104202e-12 
			vertex 0.031027070095445919 0.071642032091821267 -0.1249999999729005 
		endloop
	endfacet
	facet normal -0.047552825805322524 -0.01122569941461455 0.0345491502865597 
		outer loop
			vertex 0.20736264579609839 -0.027751455133219836 0.085410196599827487 
			vertex 0.031027070095445919 0.071642032091821267 -0.1249999999729005 
			vertex 0.1175570504430504 -0.17305996074978955 -0.085410196656011628 
		endloop
	endfacet
	facet normal -0.040614962005553805 -0.0095878919388909523 0.029508497180744424 
		outer loop
			vertex 0.1175570504430504 -0.17305996074978955 -0.085410196656011628 
			vertex 0.031027070095445919 0.071642032091821267 -0.1249999999729005 
			vertex 0. -0.18163563199999999 -0.24999999995 
		endloop
	endfacet
	facet normal -0.027751455126543763 0.11755705041757242 -0.085410196600269286 
		outer loop
			vertex 0.58778525230000001 0. 0. 
			vertex 0.062054140187009936 -0.26286555599104522 -0.19098300556071415 
			vertex 0.20736264579609837 -0.027751455133219888 0.085410196599827432 
		endloop
	endfacet
	facet normal 0.010600112622051537 -0.044902797646476179 0.032623792118506231 
		outer loop
			vertex 0.062054140187009832 -0.038351567757821475 0.1180339887181649 
			vertex 0.062054140187009936 -0.26286555599104522 -0.19098300556071415 
			vertex 0.20736264579609837 -0.027751455133219888 0.085410196599827432 
		endloop
	endfacet
	facet normal 0.0073244976812708064 0.0017290793541818099 -0.0053215590635932071 
		outer loop
			vertex 0. -0.18163563199999999 -0.24999999995 
			vertex 0.062054140183748413 -0.17710884348391606 -0.16311896059142428 
			vertex 0.062054140183748441 -0.26286555605515705 -0.19098300558603437 
		endloop
	endfacet
	facet normal 0.05020285395737565 0.011851286200918285 -0.036474508440115523 
		outer loop
			vertex 0.062054140183748413 -0.17710884348391606 -0.16311896059142428 
			vertex 0.26286555610000001 -0.16245984812637002 0.11803398872363774 
			vertex 0.26286555610000001 -0.34409548011318503 0.05901699436181887 
		endloop
	endfacet
	facet normal 0.023702572397199966 0.0055954183285218022 -0.017220926875753911 
		outer loop
			vertex 0.062054140183748413 -0.17710884348391606 -0.16311896059142428 
			vertex 0.26286555610000001 -0.34409548011318503 0.05901699436181887 
			vertex 0.062054140183748441 -0.26286555605515705 -0.19098300558603437 
		endloop
	endfacet
	facet normal 0.050202853957375643 0.011851286200918285 -0.036474508440115509 
		outer loop
			vertex 0.062054140183748441 -0.26286555605515705 -0.19098300558603437 
			vertex 0.26286555610000001 -0.34409548011318503 0.05901699436181887 
			vertex 0.26286555610000001 -0.52573111210000001 0. 
		endloop
	endfacet
	facet normal 0.023702572392419075 0.038351567755297085 -0.11803398872215706 
		outer loop
			vertex 0.58778525229999989 -4.8572257327350599e-17 -2.7755575615628914e-17 
			vertex 0.062054140183748441 -0.26286555599632233 -0.19098300556691783 
			vertex 0.062054140183748371 -0.038351567758059285 -0.11803398871889717 
		endloop
	endfacet
	facet normal 0.011851286198862113 0.019175783881940463 -0.059016994374287764 
		outer loop
			vertex 0.062054140183748441 -0.26286555599632233 -0.19098300556691783 
			vertex -0.26286555610000001 -0.42532540410000003 -0.30901699430000001 
			vertex -0.26286555610000006 -0.24368977212911166 -0.24999999994335603 
		endloop
	endfacet
	facet normal 0.014648995361692438 0.023702572398456929 -0.072949016869829519 
		outer loop
			vertex 0.062054140183748441 -0.26286555599632233 -0.19098300556691783 
			vertex -0.26286555610000006 -0.24368977212911166 -0.24999999994335603 
			vertex 0.062054140183748371 -0.038351567758059285 -0.11803398871889717 
		endloop
	endfacet
	facet normal 0.011851286198862125 0.01917578388194046 -0.05901699437428775 
		outer loop
			vertex 0.062054140183748371 -0.038351567758059285 -0.11803398871889717 
			vertex -0.26286555610000006 -0.24368977212911166 -0.24999999994335603 
			vertex -0.26286555610000006 -0.062054140158223303 -0.19098300558671205 
		endloop
	endfacet
	facet normal 0.012783855919534249 -0.054153282702146949 0.039344662916525094 
		outer loop
			vertex 0.062054140187009943 -0.26286555599469164 -0.19098300556573303 
			vertex -0.15455899067065723 -0.25008170008432506 -0.10300566475981154 
			vertex -0.26286555609999995 -0.42532540409999997 -0.30901699429999996 
		endloop
	endfacet
	facet normal -0.0063919279597971761 0.027076641351200789 -0.019672331458355046 
		outer loop
			vertex -0.26286555610000006 -0.24368977212911169 -0.059016994356643954 
			vertex -0.15455899067065723 -0.25008170008432506 -0.10300566475981154 
			vertex -0.26286555609999995 -0.42532540409999997 -0.30901699429999996 
		endloop
	endfacet
	facet normal 0.027751455131959181 0.0065512298870504942 -0.020162612374498658 
		outer loop
			vertex -0.062054140188163534 -0.32491969618227828 5.5511151231257784e-17 
			vertex -0.26286555609999995 -0.42532540409999997 -0.30901699430000001 
			vertex -0.1730599607736874 -0.28001689852668921 -0.13819660109501475 
		endloop
	endfacet
	facet normal -0.022451398819910678 -0.0053000563125680409 0.016311896061616631 
		outer loop
			vertex -0.26286555609999995 -0.24368977212911169 -0.24999999994335603 
			vertex -0.26286555609999995 -0.42532540409999997 -0.30901699430000001 
			vertex -0.1730599607736874 -0.28001689852668921 -0.13819660109501475 
		endloop
	endfacet
	facet normal -0.01119083665491127 0.047405144806187433 -0.034441853749976999 
		outer loop
			vertex 0.062054140187009832 -0.038351567757821475 0.1180339887181649 
			vertex 0.062054140187009887 -0.17710884345023234 -0.072949016867450589 
			vertex -0.18616242055266419 -0.19521599752289281 -0.01722092687054038 
		endloop
	endfacet
	facet normal -0.004526788516413088 0.019175783879695148 -0.013932022497259066 
		outer loop
			vertex 0.062054140187009887 -0.17710884345023234 -0.072949016867450589 
			vertex 0.062054140187009943 -0.26286555599469164 -0.19098300556573303 
			vertex -0.10040570795649506 -0.25327766406190166 -0.12499999996118849 
		endloop
	endfacet
	facet normal -0.0051872380605173752 0.021973493044872151 -0.01596467718687029 
		outer loop
			vertex 0.062054140187009887 -0.17710884345023234 -0.072949016867450589 
			vertex -0.10040570795649506 -0.25327766406190166 -0.12499999996118849 
			vertex -0.18616242055266419 -0.19521599752289281 -0.01722092687054038 
		endloop
	endfacet
	facet normal -0.0027977091632432104 0.011851286199494077 -0.0086104634360028055 
		outer loop
			vertex -0.18616242055266419 -0.19521599752289281 -0.01722092687054038 
			vertex -0.10040570795649506 -0.25327766406190166 -0.12499999996118849 
			vertex -0.26286555610000006 -0.24368977212911169 -0.059016994356643954 
		endloop
	endfacet
	facet normal -0.014648995358479328 -0.023702572393258032 -0.072949016853828957 
		outer loop
			vertex 0.26286555609999995 0.062054140157271745 -0.1909830055864028 
			vertex 0.26286555610000001 -0.16245984808646557 -0.11803398873660345 
			vertex -0.062054140104558592 -0.18616242048085296 -0.045084971886567869 
		endloop
	endfacet
	facet normal -0.01551353504102335 -0.025101426984367053 -0.077254248600400727 
		outer loop
			vertex 0.26286555610000001 -0.16245984808646557 -0.11803398873660345 
			vertex 0.26286555610000001 -0.52573111210000001 0. 
			vertex 0.050202854000000005 -0.39429833407500003 0. 
		endloop
	endfacet
	facet normal -0.014114680457836686 -0.022838032723242495 -0.070288237343808152 
		outer loop
			vertex 0.26286555610000001 -0.16245984808646557 -0.11803398873660345 
			vertex 0.050202854000000005 -0.39429833407500003 0. 
			vertex -0.062054140104558592 -0.18616242048085296 -0.045084971886567869 
		endloop
	endfacet
	facet normal -0.0059256431022306419 -0.0095878919455000579 -0.029508497201085254 
		outer loop
			vertex -0.062054140104558592 -0.18616242048085296 -0.045084971886567869 
			vertex 0.050202854000000005 -0.39429833407500003 0. 
			vertex -0.1624598481 -0.26286555605 0. 
		endloop
	endfacet
	facet normal 0.0010686298097251751 -0.0045267885178181264 0.0032889043736750124 
		outer loop
			vertex -0.26286555610000006 -0.24368977212911169 -0.059016994356643954 
			vertex -0.18616242055266419 -0.19521599752289276 -0.017220926870540412 
			vertex -0.26286555610000018 -0.20081141585063436 1.0964912370429181e-12 
		endloop
	endfacet
	facet normal 0.0073244976811293813 -0.031027070085429282 0.022542485937795544 
		outer loop
			vertex -0.18616242055266419 -0.19521599752289276 -0.017220926870540412 
			vertex 0.062054140187009832 -0.038351567757821475 0.1180339887181649 
			vertex -0.10040570795649517 -0.050202853958022424 0.1545084971524385 
		endloop
	endfacet
	facet normal 0.0034581587073475007 -0.014648995364671099 0.01064311812561407 
		outer loop
			vertex -0.18616242055266419 -0.19521599752289276 -0.017220926870540412 
			vertex -0.10040570795649517 -0.050202853958022424 0.1545084971524385 
			vertex -0.26286555610000018 -0.20081141585063436 1.0964912370429181e-12 
		endloop
	endfacet
	facet normal 0.0073244976811293813 -0.031027070085429282 0.022542485937795544 
		outer loop
			vertex -0.26286555610000018 -0.20081141585063436 1.0964912370429181e-12 
			vertex -0.10040570795649517 -0.050202853958022424 0.1545084971524385 
			vertex -0.26286555610000018 -0.062054140158223373 0.19098300558671211 
		endloop
	endfacet
	facet normal 0.0011745378200765124 0.0019004421141323178 0.0058489594088529445 
		outer loop
			vertex -0.1624598481 -0.26286555605 0. 
			vertex -0.17856065206115879 -0.19466145598509124 -0.018927630232185126 
			vertex -0.26286555609511641 -0.20081141585027809 2.0816681711721685e-17 
		endloop
	endfacet
	facet normal 0.01302582401635516 0.021076225991892652 0.064865953770275597 
		outer loop
			vertex -0.17856065206115879 -0.19466145598509124 -0.018927630232185126 
			vertex -0.26286555604472145 0.16245984808944272 -0.11803398872273987 
			vertex -0.42532540417236075 0.081229924044721361 -0.059016994361369937 
		endloop
	endfacet
	facet normal 0.0049754220450362154 0.0080504019779909682 0.024776589638836163 
		outer loop
			vertex -0.17856065206115879 -0.19466145598509124 -0.018927630232185126 
			vertex -0.42532540417236075 0.081229924044721361 -0.059016994361369937 
			vertex -0.26286555609511641 -0.20081141585027809 2.0816681711721685e-17 
		endloop
	endfacet
	facet normal 0.011851286196934575 0.019175783878821653 0.059016994364689025 
		outer loop
			vertex -0.26286555609511641 -0.20081141585027809 2.0816681711721685e-17 
			vertex -0.42532540417236075 0.081229924044721361 -0.059016994361369937 
			vertex -0.58778525230000001 0. 0. 
		endloop
	endfacet
	facet normal 1.1237907094904545e-18 2.7068391259787388e-18 -1.9666337416082954e-18 
		outer loop
			vertex 0.062054140187009763 0.10040570793184279 0.30901699429999996 
			vertex 0.062054140187009665 0.10040570793184279 0.3090169942999999 
			vertex 0.062054140187009665 0.12065012161385734 0.33688103928082214 
		endloop
	endfacet
	facet normal 0.13143277798120759 -0.081229924055218047 0.059016994376239071 
		outer loop
			vertex 0.062054140187009665 0.10040570793184279 0.3090169942999999 
			vertex -0.26286555610000001 -0.42532540410000003 0.30901699430000001 
			vertex -0.10040570795649503 -0.34409548005914925 0.059016994350887503 
		endloop
	endfacet
	facet normal -0.0073244976767364751 0.0045267885162481643 -0.0032889043725343719 
		outer loop
			vertex 0.062054140187009665 0.10040570793184279 0.3090169942999999 
			vertex -0.10040570795649503 -0.34409548005914925 0.059016994350887503 
			vertex 0.062054140187009665 0.12065012161385734 0.33688103928082214 
		endloop
	endfacet
	facet normal 0.13875727565794405 -0.085756712571466234 0.062305898748773472 
		outer loop
			vertex 0.062054140187009665 0.12065012161385734 0.33688103928082214 
			vertex -0.10040570795649503 -0.34409548005914925 0.059016994350887503 
			vertex 0.062054140187009943 -0.26286555601829847 -0.19098300559822501 
		endloop
	endfacet
	facet normal 0.0055954183257936295 -0.023702572396053369 0.017220926869873407 
		outer loop
			vertex -0.2628655560361825 -0.062054140153567999 0.19098300557238415 
			vertex 0.062054140187009665 -0.038351567757821427 0.11803398871816508 
			vertex 0.062054140187009665 0.014648995366071491 0.1909830055723841 
		endloop
	endfacet
	facet normal 0.0073244976793201281 -0.031027070077765138 0.022542485932227241 
		outer loop
			vertex 0.062054140187009665 -0.038351567757821427 0.11803398871816508 
			vertex 0.58778525230000001 0. 0. 
			vertex 0.42532540418669784 0.031027070081176382 0.095491502786192034 
		endloop
	endfacet
	facet normal 0.0062558678696468147 -0.026500281560166702 0.019253581558711843 
		outer loop
			vertex 0.062054140187009665 -0.038351567757821427 0.11803398871816508 
			vertex 0.42532540418669784 0.031027070081176382 0.095491502786192034 
			vertex 0.062054140187009665 0.014648995366071491 0.1909830055723841 
		endloop
	endfacet
	facet normal 0.0045267885163939306 -0.019175783879613991 0.013932022497200106 
		outer loop
			vertex 0.062054140187009665 0.014648995366071491 0.1909830055723841 
			vertex 0.42532540418669784 0.031027070081176382 0.095491502786192034 
			vertex 0.26286555607339568 0.062054140162352764 0.19098300557238407 
		endloop
	endfacet
	facet normal 0.010342356687218021 -0.0063919279586011407 0.0046440074981438529 
		outer loop
			vertex 0.26286555610000001 0.13143277800000003 -0.095491502799999989 
			vertex 0.19592841747482728 1.8426177250674414e-11 -0.12732200372680202 
			vertex 0.26286555610000001 0.062054140168633219 -0.1909830055723841 
		endloop
	endfacet
	facet normal 0.043810925995810907 -0.027076641353021826 0.019672331459678109 
		outer loop
			vertex 0.19592841747482728 1.8426177250674414e-11 -0.12732200372680202 
			vertex 0.062054140187009943 -0.26286555601829847 -0.19098300559822501 
			vertex 0.16245984814350498 -0.21266270205914922 -0.3454915027491125 
		endloop
	endfacet
	facet normal 0.027076641338277911 -0.016734284653811184 0.012158169477457676 
		outer loop
			vertex 0.19592841747482728 1.8426177250674414e-11 -0.12732200372680202 
			vertex 0.16245984814350498 -0.21266270205914922 -0.3454915027491125 
			vertex 0.26286555610000001 0.062054140168633219 -0.1909830055723841 
		endloop
	endfacet
	facet normal 0.050202853953863036 -0.031027070086052481 0.022542485938248338 
		outer loop
			vertex 0.26286555610000001 0.062054140168633219 -0.1909830055723841 
			vertex 0.16245984814350498 -0.21266270205914922 -0.3454915027491125 
			vertex 0.26286555610000001 -0.1624598481 -0.49999999989999999 
		endloop
	endfacet
	facet normal -0.011851286194716112 0.050202853953151771 0.036474508426355995 
		outer loop
			vertex 0.58778525230000001 -3.6055191715460195e-17 4.3681350730262474e-18 
			vertex 0.26286555608983803 0.06205414015921254 -0.19098300556271947 
			vertex 0.1624598481412903 -0.031027070076099627 -0.095491502784085774 
		endloop
	endfacet
	facet normal -0.0019752143670194377 0.0083671423307501453 0.0060790847415220723 
		outer loop
			vertex 0.26286555608983803 0.06205414015921254 -0.19098300556271947 
			vertex 0.1624598481 0.081229924049999999 -0.24999999995 
			vertex 0.14572556344370302 0.023880677372024459 -0.17650283236007386 
		endloop
	endfacet
	facet normal -0.0022974092816936513 0.00973198189162831 0.0070706987264626533 
		outer loop
			vertex 0.26286555608983803 0.06205414015921254 -0.19098300556271947 
			vertex 0.14572556344370302 0.023880677372024459 -0.17650283236007386 
			vertex 0.1624598481412903 -0.031027070076099627 -0.095491502784085774 
		endloop
	endfacet
	facet normal -0.00061037480738400103 0.002585589176425786 0.0018785404967343782 
		outer loop
			vertex 0.1624598481412903 -0.031027070076099627 -0.095491502784085774 
			vertex 0.14572556344370302 0.023880677372024459 -0.17650283236007386 
			vertex 0.12899127878740602 -0.033468569305951081 -0.10300566477014772 
		endloop
	endfacet
	facet normal -0.0049754220436665376 0.003074979932383975 -0.0022341036937716442 
		outer loop
			vertex 0.26286555610000001 0.13143277800000003 -0.095491502799999989 
			vertex 0.23066394818555375 0.12645735595775043 -0.030625549027132319 
			vertex 0.26286555610000001 0.20081141585271986 1.7740639299285455e-12 
		endloop
	endfacet
	facet normal -0.055178275991816003 0.03410205001490528 -0.024776589629454435 
		outer loop
			vertex 0.23066394818555375 0.12645735595775043 -0.030625549027132319 
			vertex 0.062054140187009763 0.10040570793184279 0.30901699429999996 
			vertex 0.16245984814350489 0.26286555601592143 0.30901699429999996 
		endloop
	endfacet
	facet normal -0.021076225990598958 0.013025824021095842 -0.0094638151141975546 
		outer loop
			vertex 0.23066394818555375 0.12645735595775043 -0.030625549027132319 
			vertex 0.16245984814350489 0.26286555601592143 0.30901699429999996 
			vertex 0.26286555610000001 0.20081141585271986 1.7740639299285455e-12 
		endloop
	endfacet
	facet normal -0.050202853949088355 0.031027070083101588 -0.022542485936104389 
		outer loop
			vertex 0.26286555610000001 0.20081141585271986 1.7740639299285455e-12 
			vertex 0.16245984814350489 0.26286555601592143 0.30901699429999996 
			vertex 0.26286555610000001 0.42532540410000003 0.30901699430000001 
		endloop
	endfacet
	facet normal -0.010600112622415081 -0.017151342509235591 0.052786404488649588 
		outer loop
			vertex 0.58778525230000001 0. 0. 
			vertex 0.26286555609813467 0.20081141584841272 3.4694469519536142e-18 
			vertex 0.20736264580344343 0.072654252784974699 -0.05278640448617139 
		endloop
	endfacet
	facet normal -0.0059256430997881747 -0.0095878919415480629 0.029508497188922261 
		outer loop
			vertex 0.26286555609813467 0.20081141584841272 3.4694469519536142e-18 
			vertex 0.062054140195307167 0.32491969619383715 -7.4220304638534265e-18 
			vertex -0.019175783880525391 0.22817623710343315 -0.047745751397856986 
		endloop
	endfacet
	facet normal -0.00756345057094082 -0.012237920097147446 0.037664445217623355 
		outer loop
			vertex 0.26286555609813467 0.20081141584841272 3.4694469519536142e-18 
			vertex -0.019175783880525391 0.22817623710343315 -0.047745751397856986 
			vertex 0.20736264580344343 0.072654252784974699 -0.05278640448617139 
		endloop
	endfacet
	facet normal -0.0069378637843322648 -0.011225699413408067 0.034549150282846594 
		outer loop
			vertex 0.20736264580344343 0.072654252784974699 -0.05278640448617139 
			vertex -0.019175783880525391 0.22817623710343315 -0.047745751397856986 
			vertex -0.10040570795635795 0.13143277801302919 -0.095491502795713959 
		endloop
	endfacet
	facet normal -0.0055954183261412447 0.02370257239752591 0.017220926870943256 
		outer loop
			vertex -0.26286555607339551 -0.062054140162352799 0.19098300557238415 
			vertex -0.062054140187009971 -0.10040570792611084 0.30901699429211049 
			vertex -0.062054140187009998 -0.014648995366071629 0.19098300557238412 
		endloop
	endfacet
	facet normal -0.011851286199219109 0.050202853972226832 0.036474508440214812 
		outer loop
			vertex -0.062054140187009971 -0.10040570792611084 0.30901699429211049 
			vertex 0.26286555610000001 -0.1624598481 0.49999999989999999 
			vertex 0.26286555610000001 -0.0502028539656834 0.345491502736192 
		endloop
	endfacet
	facet normal -0.0090535770344709835 0.038351567766357855 0.027864044999580357 
		outer loop
			vertex -0.062054140187009971 -0.10040570792611084 0.30901699429211049 
			vertex 0.26286555610000001 -0.0502028539656834 0.345491502736192 
			vertex -0.062054140187009998 -0.014648995366071629 0.19098300557238412 
		endloop
	endfacet
	facet normal -0.011851286199219112 0.050202853972226825 0.036474508440214819 
		outer loop
			vertex -0.062054140187009998 -0.014648995366071629 0.19098300557238412 
			vertex 0.26286555610000001 -0.0502028539656834 0.345491502736192 
			vertex 0.26286555610000001 0.062054140168633205 0.19098300557238407 
		endloop
	endfacet
	facet normal -0.025101426979980614 0.015513535044910678 0.011271242970493296 
		outer loop
			vertex 2.7755575615628914e-17 8.3266726846886741e-17 0.30901699429999996 
			vertex -0.062054140187010026 0.081229924058635272 0.059016994329680855 
			vertex -0.062054140187009971 -0.10040570793184289 0.30901699429999996 
		endloop
	endfacet
	facet normal -0.032858194488081229 0.020307481009341904 0.014754248590817472 
		outer loop
			vertex -0.062054140187010026 0.081229924058635272 0.059016994329680855 
			vertex -0.10040570795403882 0.13143277801579126 -0.095491502794350799 
			vertex -0.18163563202701938 -0.14694631304210432 0.10676274575282452 
		endloop
	endfacet
	facet normal -0.048371729533809443 0.029895372956453056 0.02172025984472432 
		outer loop
			vertex -0.062054140187010026 0.081229924058635272 0.059016994329680855 
			vertex -0.18163563202701938 -0.14694631304210432 0.10676274575282452 
			vertex -0.062054140187009971 -0.10040570793184289 0.30901699429999996 
		endloop
	endfacet
	facet normal -0.065716388986667151 0.040614962025176081 0.029508497186351863 
		outer loop
			vertex -0.062054140187009971 -0.10040570793184289 0.30901699429999996 
			vertex -0.18163563202701938 -0.14694631304210432 0.10676274575282452 
			vertex -0.26286555609999995 -0.42532540409999986 0.30901699429999985 
		endloop
	endfacet
endsolid icosahedron_2_1_step_49