solid retriangulation4_unchanged
	facet normal 0.52316809341694392 -0.35538028346955614 -0.77459666933932647 
		outer loop
			vertex 0.42532540400000002 -0.68819096040000005 0.49999999979999998 
			vertex -0.42532540400000002 -0.85065080849999997 0. 
			vertex 0.044902797600000002 0.027751455099999999 -0.085410196499999994 
		endloop
	endfacet
	facet normal -0.083893904742486286 0.62686666236259503 -0.77459666947737293 
		outer loop
			vertex -0.044902797600000002 -0.027751455099999999 0.085410196499999994 
			vertex 0.12522736385654409 -0.02301094063083842 0.07082039315948313 
			vertex 0.085065080722408565 -0.210292444713291 -0.076393202153101483 
		endloop
	endfacet
endsolid retriangulation4_unchanged